<svg width="24" height="24" viewBox="0 0 24 24" fill="none" xmlns="http://www.w3.org/2000/svg">
<path fill-rule="evenodd" clip-rule="evenodd" d="M17.939 3.53046C17.939 2.13398 19.073 1 20.4695 1C21.866 1 23 2.13398 23 3.53046C23 4.92694 21.866 6.06092 20.4695 6.06092C19.073 6.06092 17.939 4.92694 17.939 3.53046ZM13.8964 14.397L16.9309 10.4816L16.8889 10.5026C17.0569 10.2716 17.0884 9.97764 16.9729 9.71514C16.8585 9.45264 16.6054 9.27415 16.3335 9.25315C16.0489 9.22165 15.7665 9.34765 15.5974 9.57864L13.0575 12.8651L10.148 10.5761C9.96946 10.4396 9.75946 10.3861 9.54946 10.4081C9.34051 10.4396 9.15151 10.5541 9.02446 10.7221L5.91753 14.7656L5.85348 14.8601C5.67498 15.195 5.75898 15.6255 6.07398 15.8575C6.22098 15.952 6.37848 16.015 6.55697 16.015C6.79952 16.0255 7.02947 15.8985 7.17647 15.7001L9.81196 12.3076L12.8044 14.5556L12.8989 14.6175C13.2349 14.796 13.6549 14.7131 13.8964 14.397ZM16.1224 2.8693C16.0804 3.13179 16.0594 3.39429 16.0594 3.65679C16.0594 6.01925 17.9704 7.92917 20.3224 7.92917C20.5849 7.92917 20.8369 7.89872 21.0994 7.85672V16.329C21.0994 19.8895 18.9994 22 15.4294 22H7.67102C4.09999 22 2 19.8895 2 16.329V8.56021C2 4.99027 4.09999 2.8693 7.67102 2.8693H16.1224Z" fill="#00DDA3"/>
</svg>
